<svg version="1.1" xmlns="http://www.w3.org/2000/svg" viewBox="0 0 2000 225">

<text transform="matrix(0.91387 0.20601 -0.20601 0.91387 56.51732 98)" opacity="1" fill="#8AC800" font-family="Roboto"
  font-weight="900" font-size="143px">M</text>

<text transform="matrix(0.97982 -0.1999 0.1999 0.97982 170.19922 96.6)" opacity="1" fill="#FFBF00" font-family="Roboto"
font-weight="900" font-size="123px">I</text>

<text transform="matrix(0.96087 0.27699 -0.27699 0.96087 196.48253 99.6)" opacity="1" fill="#DADE00" font-family="Roboto"
font-weight="900" font-size="123px">L</text>

<text transform="matrix(0.96087 0.17699 -0.17699 0.96087 250.48253 96.8)" opacity="1" fill="#006FC0" font-family="Roboto"
font-weight="900" font-size="133px">L</text>

<text transform="matrix(0.99863 -0.05234 0.05234 0.99863 310.96762 109.6)" opacity="1" fill="#FF0000" font-family="Roboto"
font-weight="900" font-size="123px">I</text>

<circle fill="#FFFFFF" cx="200.50781" cy="120.5" r="34.5" opacity=".8"/>

<text transform="matrix(1 0 0 1 172.5 135)" font-family="Roboto" font-size="40px" font-weight="900" fill="purple" opacity="0.5">ON</text>

<text transform="matrix(0.91387 0.20601 -0.20601 0.91387 56.51732 180)" opacity="0.8" fill="#8AC800" font-family="Roboto"
  font-weight="900" font-size="143px">C</text>

<text transform="matrix(0.97982 -0.1999 0.1999 0.97982 170.19922 196.6)" opacity="1" fill="#FFBF00" font-family="Roboto"
font-weight="900" font-size="123px">O</text>

<text transform="matrix(0.96087 0.27699 -0.27699 0.96087 196.48253 199.6)" opacity="1" fill="#DADE00" font-family="Roboto"
font-weight="900" font-size="123px">L</text>

<text transform="matrix(0.96087 0.17699 -0.17699 0.96087 250.48253 196.8)" opacity="1" fill="#006FC0" font-family="Roboto"
font-weight="900" font-size="133px">O</text>

<text transform="matrix(0.99863 -0.05234 0.05234 0.99863 310.96762 209.6)" opacity="1" fill="#FF0000" font-family="Roboto"
font-weight="900" font-size="123px">U</text>


</svg>
